129	nr
129	nth
5000	ntmax
0.7d0	rbcz
0.01d0	tacthick
150.d0   scalssn
2 nbex
'__merged_dir__'  result_dir
1976.d0  asyr  assimilate from this year
1986.d0  styr  extrapolate from this year
1987.d0 exyr  find max right after this year
36           length of extrapolation
